[
    "af",
    "am",
    "ar",
    "az",
    "ba",
    "be",
    "bg",
    "bn",
    "bs",
    "ca",
    "ceb",
    "cs",
    "cy",
    "da",
    "de",
    "el",
    "en",
    "eo",
    "es",
    "et",
    "eu",
    "fa",
    "fi",
    "fr",
    "ga",
    "gd",
    "gl",
    "gu",
    "he",
    "hi",
    "hr",
    "ht",
    "hu",
    "hy",
    "id",
    "is",
    "it",
    "ja",
    "jv",
    "ka",
    "kk",
    "kn",
    "ko",
    "ky",
    "la",
    "lt",
    "lv",
    "mg",
    "mhr",
    "mi",
    "mk",
    "ml",
    "mn",
    "mr",
    "mrj",
    "ms",
    "mt",
    "ne",
    "nl",
    "no",
    "pa",
    "pap",
    "pl",
    "pt",
    "ro",
    "ru",
    "si",
    "sk",
    "sl",
    "sq",
    "sr",
    "su",
    "sv",
    "sw",
    "ta",
    "te",
    "tg",
    "th",
    "tl",
    "tr",
    "tt",
    "udm",
    "uk",
    "ur",
    "uz",
    "vi",
    "xh",
    "yi",
    "zh"
  ]